{
  "extends": [
    "tslint:latest",
    "tslint-react",
    "tslint-config-prettier"
  ],
  "linterOptions": {
    "exclude": [
      "config/**/*.js",
      "node_modules/**/*.ts",
      "coverage/lcov-report/*.js"
    ]
  },
  "rules": {
    "quotemark": [
      false,
      "single"
    ],
    "ordered-imports": false,
    "member-ordering": false,
    "jsx-no-lambda": false,
    "interface-name": [
      true,
      "never-prefix"
    ]
  }
}